{
    "title":"Minecraft skins",
    "desc":"Плагин позволяет игрокам менять свой скин и плащ прямо на сайте, если у вашего minecraft сервера есть система скинов.",
    "icon" : "screenshot.png",
    "points" : "before_view",
    "action":{
        "allow":{
            "1":["index"]
        }
    }
}